INDEX VERSION 1.127+/Users/Julian/Documents/Entwicklung/Eclipse/KI Projekt/.metadata/.plugins/org.eclipse.jdt.core
1308420387.index
2978579992.index
1384487945.index
3302703152.index
1744670643.index
3321539481.index
4010447654.index
156905802.index
1870315690.index
2545238116.index
3712507179.index
2775959377.index
2139576723.index
2209870153.index
3909959958.index
1271342938.index
1819685514.index
1217333004.index
2181171068.index
3266567714.index
3860838972.index
4082587601.index
1833648217.index
3788427059.index
4238209716.index
1008683587.index
369741659.index
1862547537.index
4253713330.index
